<svg xmlns="http://www.w3.org/2000/svg" width="12" height="20" viewBox="0 0 12 20">
  <g id="Group" transform="translate(12.5 -0.5) rotate(90)">
    <path id="Path" d="M10,12l.781-.77L20,2.168,18.438,0,10,8.292,1.562,0,0,2.168,9.219,11.23Z" transform="translate(0.5 0.5)" fill="#151515"/>
  </g>
</svg>
