<svg id="icon_rs_twitter" data-name="icon/rs/twitter" xmlns="http://www.w3.org/2000/svg" width="15" height="13" viewBox="0 0 15 13">
  <path id="Twitter" d="M15,1.539a5.834,5.834,0,0,1-1.767.516A3.259,3.259,0,0,0,14.586.24a5.926,5.926,0,0,1-1.955.8A2.984,2.984,0,0,0,10.385,0,3.184,3.184,0,0,0,7.309,3.282a3.477,3.477,0,0,0,.079.747A8.567,8.567,0,0,1,1.044.6,3.446,3.446,0,0,0,.628,2.251,3.343,3.343,0,0,0,2,4.982,2.935,2.935,0,0,1,.6,4.573v.04a3.237,3.237,0,0,0,2.47,3.218,2.829,2.829,0,0,1-.811.115,2.878,2.878,0,0,1-.579-.058,3.11,3.11,0,0,0,2.875,2.278A5.934,5.934,0,0,1,.734,11.572,5.925,5.925,0,0,1,0,11.527,8.335,8.335,0,0,0,4.717,13c5.661,0,8.756-5,8.756-9.337,0-.143,0-.285-.008-.425A6.472,6.472,0,0,0,15,1.539" fill="#151515"/>
</svg>
