{
    "misc": {
        "meta": {
            "title": "Bienvenu en France",
            "description": "Connaissez-vous bien la France ?"
        },
        "funfact": "Le saviez-vous ?",
        "share": {
            "title": "Partagez cette expérience avec un ami qui vient s’installer en France :"
        },
        "addThisConfig": {
            "title": "Connaissez-vous bien la France ?",
            "description": "Débutant, Amateur ou Connaisseur ? En tant que banque internationale, HSBC vous propose de répondre à ce quizz pour recevoir un guide GRATUIT à télécharger. Découvrez comment bien vivre en France, gérer votre argent et profiter au mieux de ce beau pays. Commencez l'expérience !",
            "media": "/_nuxt/img/ff40ba7.png"
        }
    },
    "pdf" : {
        "freelancer": {
            "has_children": "HSBC-Guide-Bienvenue-en-France-A.pdf",
            "has_not_children": "HSBC-Guide-Bienvenue-en-France-B.pdf"
        },
        "employed": {
            "has_children": "HSBC-Guide-Bienvenue-en-France-C.pdf",
            "has_not_children": "HSBC-Guide-Bienvenue-en-France-D.pdf"
        },
        "retired": {
            "has_children": "HSBC-Guide-Bienvenue-en-France-E.pdf",
            "has_not_children": "HSBC-Guide-Bienvenue-en-France-F.pdf"
        },
        "looking_job": {
            "has_children": "HSBC-Guide-Bienvenue-en-France-G.pdf",
            "has_not_children": "HSBC-Guide-Bienvenue-en-France-H.pdf"
        },
        "other": {
            "has_children": "HSBC-Guide-Bienvenue-en-France-D.pdf",
            "has_not_children": "HSBC-Guide-Bienvenue-en-France-D.pdf"
        }
    },
    "button": {
        "next": "Suivant",
        "previous": "Précédent",
        "start": "Commencer l'expérience",
        "cgu": "En savoir plus",
        "accept": "Accepter les cookies",
        "send": "Envoyer",
        "share": "Partager l'expérience",
        "openAccount": "Ouvrir un compte en ligne",
        "appointment": "Prendre un rendez-vous ",
        "shareRedirect" : "Partager maintenant",
        "learnRedirect" : "En savoir plus"
    },
    "submit": [
        "Entrez votre adresse email et recevez votre guide de bienvenue en France :",
        "Mais pour devenir un vrai francologue, entrez votre adresse email et recevez votre guide de bienvenue en France :"
    ],
    "form": {
        "title": "Veuillez compléter le formulaire suivant :",
        "compulsory": "Les champs marqués d’une * sont obligatoires",
        "label": {
            "gender": {
                "female" : "Madame",
                "male" : "Monsieur"
            },
            "title" : "Titre",
            "lastname" : "Nom",
            "firstname" : "Prénom",
            "mail" : "Adresse email",
            "agree": {
                "guide" : "J’accepte de recevoir le Guide « Bienvenue en France » par email",
                "mail" : "J’accepte de recevoir les communications de HSBC France par email"
            }
        },
        "errors" : [
            "Champ requis.",
            "Nombre de caractères insuffisants.",
            "Format incorrect"
        ],
        "sucess": "Votre Guide de Bienvenue personnalisé a bien été envoyé par email. Vous allez le recevoir d'une minute à l'autre, vérifiez bien votre messagerie !"

    },
    "footer": {
        "title": "Rejoignez HSBC – Une banque internationale",
        "accountUrl": "https://www.hsbc.fr/1/2/hsbc-france/particuliers/devenir-client-ouvrir-un-compte-bancaire-en-ligne",
        "appointmentUrl": "https://www.hsbc.fr/group-appointmentbooking-ui-web/group/fsa/web/internet/france.html"
    },
    "screen": {
        "home": {
            "title": "Débutant, Amateur ou Connaisseur?",
            "intro": "Connaissez-vous bien la France, l'un des pays les plus fascinants au monde ?",
            "content": "En tant que banque internationale, HSBC vous propose de répondre à ce quizz pour <strong>recevoir un guide personnalisé GRATUIT à télécharger.</strong> Découvrez comment bien vivre en France, gérer votre argent et profiter au mieux de ce beau pays.",
            "cookieBanner": {
                "title": "Configurer les préférences des cookies",
                "content": "Nous utilisons des cookies pour vous offrir la meilleure expérience possible sur notre site. En continuant votre navigation sur ce site, vous acceptez l’utilisation de ces cookies. Pour plus de détails, consultez notre politique de gestion des cookies."
            }
        },
        "steps": [
            {
                "order": 0,
                "icon": "/picto/q1.svg",
                "question": "De toute évidence, vous êtes un grand voyageur. Laquelle de ces réponses vous décrit le mieux ?",
                "funfact": "La France est le pays le plus visité au monde avec près de 90 millions de visiteurs par an !",
                "choices": [
                    {
                        "point": 0,
                        "label": "Je viens ici pour m’installer"
                    },
                    {
                        "point": 0,
                        "label": "Je suis français et j’ai l’intention de rester en France",
                        "redirectId": "1"
                    },
                    {
                        "point": 0,
                        "label": "Je suis français, mais je vis ailleurs",
                        "redirectId": "2"
                    },
                    {
                        "point": 0,
                        "label": "Je ne suis pas français et je suis juste en visite en France",
                        "redirectId": "3"
                    }
                ]
            },
            {
                "order": 1,
                "usedForGuide": true,
                "icon": "/picto/q2.svg",
                "question": "Bien que la France soit célèbre pour ses longs déjeuners et pour ses semaines de travail de 35h, ses travailleurs sont parmi les plus productifs au monde. Quelle est votre situation professionnelle ?",
                "funfact": "Si un jour de congé tombe un mardi ou un jeudi, beaucoup de Français feront “le pont”, c’est-à-dire qu’ils prendront leur lundi ou leur vendredi pour faire un long week-end de 4 jours.",
                "choices": [{
                        "point": 0,
                        "label": "Salarié(e)",
                        "value": "employed"
                    },
                    {
                        "point": 0,
                        "label": "À votre compte/entrepreneur(e)",
                        "value": "freelancer"
                    },
                    {
                        "point": 0,
                        "label": "Retraité(e)",
                        "value": "retired"
                    },
                    {
                        "point": 0,
                        "label": "En recherche d’emploi",
                        "value": "looking_job"
                    },
                    {
                        "point": 0,
                        "label": "Autre",
                        "value": "other"
                    }
                ]
            },
            {
                "order": 2,
                "usedForGuide": true,
                "icon": "/picto/q3.svg",
                "question": "La France est le pays de l’Amour. Et vous, quelle est votre situation familiale ?",
                "funfact": "Même si la France est réputée romantique, il existe une loi de 1910 qui interdit aux couples de s’embrasser sur les quais de gare. Apparemment, cela retardait trop de trains !",
                "choices": [{
                        "point": 0,
                        "label": "Célibataire sans enfant",
                        "hasChildren": false
                    },
                    {
                        "point": 0,
                        "label": "Célibataire avec enfant(s)",
                        "hasChildren": true
                    },
                    {
                        "point": 0,
                        "label": "En couple sans enfant",
                        "hasChildren": false
                    },
                    {
                        "point": 0,
                        "label": "En couple avec enfant(s)",
                        "hasChildren": true
                    }
                ]
            },
            {
                "order": 3,
                "icon": "/picto/q4.svg",
                "question": "Quand on emménage pour la première fois en France, on peut se sentir un peu « dépaysé(e) », un mot très français pour décrire le sentiment de non-appartenance. Que feriez-vous dans ce cas ?",
                "funfact": "Cela vous prendrait au moins une journée pour monter au sommet du Mont Blanc, la montagne la plus haute de France qui culmine à 4810 m. Ou vous pourriez aussi prendre le téléphérique jusqu’à l’Aiguille du Midi, juste à côté. Cela ne vous prendrait que 20 minutes !",
                "choices": [{
                        "point": 2,
                        "label": "Aller vous balader pour saisir l’ambiance du quartier et, avec un peu de chance, faire quelques rencontres."
                    },
                    {
                        "point": 3,
                        "label": "Partir en direction du bar le plus proche pour observer les gens et entamer une conversation avec le patron."
                    },
                    {
                        "point": 1,
                        "label": "Aller au cinéma car, même si vous regardez un film en Version Originale, vous pourrez apprendre le français en lisant les sous-titres."
                    }
                ]
            },
            {
                "order": 4,
                "icon": "/picto/q5.svg",
                "question": "Autrefois, les jeunes américains fortunés passaient quelques années à vivre dans un appartement parisien, travaillant sur leurs peintures, poèmes ou pouvoir de séduction. Et vous, comment allez-vous occuper votre temps ici ?",
                "funfact": "Le Louvre est le musée le plus populaire au monde avec plus de 10 millions de visiteurs en 2018.",
                "choices": [{
                        "point": 3,
                        "label": "Je me plongerai dans le travail car il s’agit d’une véritable opportunité de carrière ! "
                    },
                    {
                        "point": 2,
                        "label": "Je veux apprendre la langue et m’immerger dans la culture française."
                    },
                    {
                        "point": 3,
                        "label": "J’espère que ce sera le lieu où je trouverai l’âme sœur."
                    },
                    {
                        "point": 1,
                        "label": "Je me ferai plaisir avec les spécialités gastronomiques locales. "
                    }
                ],
                "nextScreen": "slide/checkpoint/1"
            },
            {
                "order": 5,
                "icon": "/picto/q6.svg",
                "question": "Si vous aviez 50 millions à dépenser, vous pourriez acheter un appartement au dernier étage avec une vue fabuleuse sur la Tour Eiffel. Pour l’heure, qu’est-ce qui décrirait le mieux votre logement ?",
                "funfact": "Un appartement loué est resté inoccupé pendant 70 ans. Quand le locataire est décédé, le propriétaire y trouva un tableau d’une valeur de plus de 2 millions d'euros.",
                "choices": [{
                        "point": 1,
                        "label": "Je vis quelque part en dehors de la France"
                    },
                    {
                        "point": 3,
                        "label": "Je possède un bien en France"
                    },
                    {
                        "point": 2,
                        "label": "Je loue un bien en France"
                    },
                    {
                        "point": 2,
                        "label": "Je cherche un bien à acheter/louer en France"
                    }
                ]
            },
            {
                "order": 6,
                "icon": "/picto/q7.svg",
                "question": "Si vous deviez essayer une de ces fabuleuses et surprenantes spécialités françaises, laquelle choisiriez-vous ? (on vous aide : elles sont toutes délicieuses)",
                "funfact": "Selon la loi, la fameuse baguette ne peut contenir que de la farine, de l’eau, de la levure et du sel. Elle doit également peser exactement 250 g.",
                "choices": [{
                        "point": 3,
                        "label": "Les escargots"
                    },
                    {
                        "point": 2,
                        "label": "Les cuisses de grenouilles"
                    },
                    {
                        "point": 1,
                        "label": "L’andouillette – une saucisse faite avec des intestins de porc "
                    },
                    {
                        "point": 1,
                        "label": "Le fromage de tête – de la viande en gelée faite avec de la tête de veau"
                    },
                    {
                        "point": 3,
                        "label": "Les époisses de Bourgogne – un fromage si odorant que vous ne pouvez pas l’emporter à bord de certains bus et trains !"
                    }
                ]
            },
            {
                "order": 7,
                "icon": "/picto/q8.svg",
                "question": "Si vous aviez un billet de TGV gratuit pour l’une de ces villes françaises, laquelle choisiriez-vous ?",
                "funfact": "Plus de 85% de la population française est citadine, en faisant l’un des pays les plus urbanisés d’Europe.",
                "choices": [{
                        "point": 1,
                        "label": "Paris – évidemment !"
                    },
                    {
                        "point": 3,
                        "label": "Strasbourg – J’aime la choucroute, le munster et, bien sûr, la fameuse flammekueche !"
                    },
                    {
                        "point": 2,
                        "label": "Marseille – Le soleil, la bouillabaisse et la Méditerranée. Parfait !"
                    },
                    {
                        "point": 2,
                        "label": "Lyon – L’un des meilleurs sites gastronomiques au monde et si près des Alpes !"
                    }
                ]
            },
            {
                "order": 8,
                "icon": "/picto/q9.svg",
                "question": "La France possède l’un des meilleurs systèmes de santé au monde et une Histoire riche en avancées médicales, depuis la pasteurisation jusqu’au dernières innovations technologiques. Laquelle de ces inventions françaises est votre préférée ?",
                "funfact": "Les pharmaciens français sont formés pour reconnaître les champignons vénéneux. Vous pouvez donc leur porter les champignons que vous avez cueillis pour leur faire vérifier gratuitement.",
                "choices": [{
                        "point": 3,
                        "label": "Le stéthoscope"
                    },
                    {
                        "point": 2,
                        "label": "La conserve"
                    },
                    {
                        "point": 1,
                        "label": "L’appareil photo sur smartphone"
                    }
                ]
            },
            {
                "order": 9,
                "icon": "/picto/q10.svg",
                "question": "Du cyclisme au tennis, en passant par le football et la course automobile, les Français ont une longue tradition sportive. Lequel de ces sports préférez-vous ?",
                "funfact": "Lors d’une course majeure en France en 1903, certains participants furent disqualifiés pour avoir pris le train. Malheureusement pour eux, les officiels de la course étaient également dans le train en question.",
                "choices": [{
                        "point": 2,
                        "label": "Tennis – La France compte 12 vainqueurs du Grand Chelem !"
                    },
                    {
                        "point": 1,
                        "label": "Handball – Les équipes féminines et masculines françaises ont été championnes du monde 6 fois en tout !"
                    },
                    {
                        "point": 3,
                        "label": "Football – L’équipe française a été sacrée championne du monde deux fois, y compris en 2018 !"
                    }
                ],
                "nextScreen": "slide/checkpoint/2"
            },
            {
                "order": 10,
                "icon": "/picto/q11.svg",
                "question": "Vous êtes dans un café pour le petit-déjeuner. Que commandez-vous ?",
                "funfact": "Le croissant est synonyme de la France, mais il a en réalité été inventé à Vienne. Depuis ce jour, les Français appellent ces gourmandises des Viennoiseries",
                "choices": [{
                        "point": 3,
                        "label": "Un café serré et un croissant"
                    },
                    {
                        "point": 1,
                        "label": "Du thé et un pain au chocolat"
                    },
                    {
                        "point": 2,
                        "label": "Un bol de chocolat et une tartine"
                    }
                ]
            },
            {
                "order": 11,
                "icon": "/picto/q12.svg",
                "question": "Lequel de ces romans classiques préférez-vous ?",
                "funfact": "La bibliothèque nationale François Mitterrand, qui a ouvert ses portes en 1988, possède 4 tours conçues pour ressembler à des livres ouverts.",
                "choices": [{
                        "point": 3,
                        "label": "Les Trois Mousquetaires"
                    },
                    {
                        "point": 2,
                        "label": "Notre Dame de Paris"
                    },
                    {
                        "point": 1,
                        "label": "La Belle et la Bête"
                    }
                ]
            },
            {
                "order": 12,
                "icon": "/picto/q13.svg",
                "question": "Laquelle de ces délicieuses spécialités vous fait saliver le plus ?",
                "funfact": "Les supermarchés en France n’ont pas le droit de jeter les denrées qui approchent de leur date de péremption. Ils doivent plutôt les donner à des associations pour nourrir les plus démunis.",
                "choices": [{
                        "point": 2,
                        "label": "La religieuse – une délicieuse pâtisserie censée ressembler à une nonne !"
                    },
                    {
                        "point": 3,
                        "label": "La salade niçoise – un vrai goût du Sud"
                    },
                    {
                        "point": 1,
                        "label": "Le cassoulet – une marmite riche et cuite à petit feu"
                    }
                ]
            },
            {
                "order": 13,
                "icon": "/picto/q14.svg",
                "question": "Si vous pouviez incarner une personnalité française, qui choisiriez-vous ?",
                "funfact": "Nombreuses sont les personnes qui pensent que Napoléon était petit. Pourtant, il mesurait 1m69, c’est-à-dire plus que la taille moyenne de l’époque.",
                "choices": [{
                        "point": 2,
                        "label": "Vercingétorix, le chef gaulois sans peur"
                    },
                    {
                        "point": 3,
                        "label": "René Descartes, le grand penseur, mathématicien et scientifique"
                    },
                    {
                        "point": 1,
                        "label": "Jeanne d’Arc, la légendaire demoiselle d’Orléans"
                    }
                ]
            },
            {
                "order": 14,
                "icon": "/picto/q15.svg",
                "question": "La crêpe est un vrai délice français à emporter. Mais si vous en commandiez une, laquelle choisiriez-vous ?",
                "funfact": "Le 2 février, jour de la Chandeleur, est devenu LE jour où l’on mange des crêpes en France. C’est aussi le Jour de la Marmotte aux Etats-Unis, mais les crêpes ne peuvent pas vous dire quel temps il fera !",
                "choices": [{
                        "point": 1,
                        "label": "La crêpe au sucre – juste un peu de sucre pour bien sentir le goût de la crêpe"
                    },
                    {
                        "point": 2,
                        "label": "La Complète – œuf, fromage et jambon – un savoureux plaisir !"
                    },
                    {
                        "point": 3,
                        "label": "La crêpe Suzette – flambée, à l’orange et au beurre caramélisé – un vrai classique !"
                    }
                ]
            }
        ],
        "checkpoint-1": {
            "title": "Formidable!",
            "content": "Vous commencez à bien connaître la France. Mais si vous voulez en savoir plus, <strong>demandez votre guide GRATUIT personnalisé.</strong> Il contient des conseils utiles sur les transports, la gastronomie, l’éducation, la gestion de l’argent, la retraite… et bien plus encore.",
            "link": "Je préfère continuer le quizz",
            "continue": "/slide/6"
        },
        "checkpoint-2": {
            "title": "Bravo !",
            "content": "Vous commencez à bien connaître la France. Mais si vous voulez en savoir plus, <strong>demandez votre guide GRATUIT personnalisé.</strong> Il contient des conseils utiles sur les transports, la gastronomie, l’éducation, la gestion de l’argent, la retraite… et bien plus encore.",
            "link": "Je préfère continuer le quizz",
            "continue": "/slide/11"
        },
        "results": {
            "title": "Ooh la la ! Vous êtes prêt(e) pour la France !",
            "share": {
                "title": "Partagez cette expérience avec un ami qui vient s’installer en France :"
            },
            "profiles": [{
                    "name": "debutant",
                    "icon": "/picto/e1.svg",
                    "detail": "<p class='font-bold'>Votre profil : Débutant</p><p>Vous aimez la France mais vous avez encore plein de choses à découvrir. Pour cela, HSBC est à vos côtés !</p>",
                    "submit": "Entrez votre adresse email et recevez votre guide de bienvenue en France :"
                },
                {
                    "name": "amateur",
                    "icon": "/picto/e2.svg",
                    "detail": "<p class='font-bold'>Votre profil : Amateur</p><p>Vous y êtes presque. Mais pour en découvrir encore plus, choisissez HSBC, une banque internationale.</p>",
                    "submit": "Entrez votre adresse email et recevez votre guide de bienvenue en France :"
                },
                {
                    "name": "connaisseur",
                    "icon": "/picto/e3.svg",
                    "detail": "<p class='font-bold'>Votre profil : Connaisseur</p><p>Vous êtes aussi français qu’un promeneur sur son vélo, avec sa baguette et descendant l’avenue des Champs-Elysées un 14 juillet. Comme HSBC, vous connaissez la France mieux que personne.</p>",
                    "submit" : "Mais pour devenir un vrai francologue, entrez votre adresse email et recevez votre guide de bienvenue en France :"
                }
            ]
        },
        "redirects": [
            {
                "content": "<p class='text-lg leading-tight lg:text-2xl'>Vous connaissez déjà bien l’Art de vivre à la française ! <strong>Mais peut-être que vous connaissez quelqu’un d’autre qui apprécierait de recevoir un guide personnalisé sur la France de la part de HSBC ?</strong> Il contient des conseils sur les transports, le logement, la gastronomie, l’éducation, la gestion de l’argent, la retraite… et bien plus encore !</p>",
                "secondary": "<p class='text-lg leading-tight lg:text-2xl'>Si vous voyagez beaucoup, vous pourriez être intéressé(e) par l’offre HSBC, une véritable banque internationale.</p>",
                "canShare": true,
                "learnMoreUrl": "https://www.hsbc.fr/international-services/expatries-francais/"
            },
            {
                "content": "<p class='text-lg leading-tight lg:text-2xl'>Vous connaissez quelqu’un qui apprécierait de <strong>recevoir un guide personnalisé sur la France de la part de HSBC ?</strong> Il contient des conseils sur les transports, le logement, la nourriture, l’éducation, la gestion de l’argent, la retraite… et bien plus encore !</p>",
                "secondary": "<p class='text-lg leading-tight lg:text-2xl'><strong>Saviez-vous que HSBC propose toute une gamme de services dédiés aux expatriés français ?</strong></p>",
                "canShare": true,
                "learnMoreUrl": "https://www.hsbc.fr/international-services/expatries-francais/"
            },
            {
                "title": "Bienvenue en France !",
                "content": "<p class='text-lg leading-tight lg:text-2xl mb-8'>Que vous veniez séjourner à Paris, sur les plages méditerranéennes, les montagnes enneigées ou dans n’importe quelle région de France, nous vous souhaitons un fabuleux séjour dans notre pays.</p><p class='text-lg leading-tight lg:text-2xl mb-8'><strong>Peut-être que vous connaissez quelqu’un qui apprécierait de recevoir un guide personnalisé sur la France de la part de HSBC ?</strong> Il contient des conseils sur les transports, le logement, la nourriture, l’éducation, la gestion de l’argent, la retraite… et bien plus encore !</p>",
                "ending": "À très bientôt !",
                "corporate": "HSBC France",
                "canShare": true,
                "secondary": "<p class='text-lg leading-tight lg:text-2xl'>Si vous voyagez beaucoup, vous pourriez être intéressé(e) par l’offre de HSBC, une banque internationale.</p>",
                "learnMoreUrl": "https://www.hsbc.fr/international-services/expatries-francais/"
            }
        ]
    }
}
