{
    "button": {
        "start": "Start the experience",
        "cgu": "Find out more",
        "accept": "Accept cookies",
        "send": "Send",
        "share": "Share the experience",
        "openAccount": "Open an account online",
        "appointment": "Book an appointment"
    },
    "footer": {
        "title": "Join HSBC – a truly international French bank"
    },
    "screen": {
        "home": {
            "background": "https://picsum.photos/200/300",
            "title": "Debutant, Amateur ou Connoisseur?",
            "intro": "How well do you know France – one of the world’s most fascinating countries?",
            "content": "<p>understands France. <strong>Take our quiz and we’ll offer you a FREE downloadable personalized guide to living in France</strong>, and show you how to manage your money… and make the most of this beautiful land.</p>",
            "cookieBanner": {
                "title": "Setup cookie preferences",
                "content": "We use cookies to give you the best possible experience on our website. By continuing to browse this site, you give consent for cookies to be used. For more details, please read our Cookie Policy."
            }
        },
        "steps": [{
                "order": 0,
                "icon": "https://picsum.photos/200/200",
                "question": "You’re obviously a seasoned traveler. Which of these options best describes you?",
                "funfact": "France is the most visited country in the world, with nearly 90 million people coming every year!",
                "choices": [{
                        "point": "1",
                        "label": "I am French, and I plan to stay in France"
                    },
                    {
                        "point": "null",
                        "label": "I am French, and I plan to stay in France"
                    },
                    {
                        "point": "2",
                        "label": "I am French, and I plan to stay in France"
                    },
                    {
                        "point": "1",
                        "label": "I am French, and I plan to stay in France"
                    }
                ],
                "nextScreen": "checkpoint-1"
            },
            {
                "order": 1,
                "icon": "https://picsum.photos/200/200",
                "question": "You’re obviously a seasoned traveler. Which of these options best describes you?",
                "funfact": "France is the most visited country in the world, with nearly 90 million people coming every year!",
                "choices": [{
                        "point": "2",
                        "label": "I am French, and I plan to stay in France"
                    },
                    {
                        "point": "1",
                        "label": "I am French, and I plan to stay in France"
                    },
                    {
                        "point": "2",
                        "label": "I am French, and I plan to stay in France"
                    },
                    {
                        "point": "null",
                        "label": "I am French, and I plan to stay in France"
                    }
                ],
                "nextScreen": "checkpoint-2"
            },
            {
                "order": 2,
                "icon": "https://picsum.photos/200/200",
                "question": "You’re obviously a seasoned traveler. Which of these options best describes you?",
                "funfact": "France is the most visited country in the world, with nearly 90 million people coming every year!",
                "choices": [{
                        "point": "null",
                        "label": "I am French, and I plan to stay in France"
                    },
                    {
                        "point": "null",
                        "label": "I am French, and I plan to stay in France"
                    },
                    {
                        "point": "null",
                        "label": "I am French, and I plan to stay in France"
                    },
                    {
                        "point": "1",
                        "label": "I am French, and I plan to stay in France"
                    }
                ],
                "nextScreen": "result"
            },
            {
                "order": 3,
                "icon": "https://picsum.photos/200/200",
                "question": "You’re obviously a seasoned traveler. Which of these options best describes you?",
                "funfact": "France is the most visited country in the world, with nearly 90 million people coming every year!",
                "choices": [{
                        "point": "null",
                        "label": "I am French, and I plan to stay in France"
                    },
                    {
                        "point": "null",
                        "label": "I am French, and I plan to stay in France"
                    },
                    {
                        "point": "2",
                        "label": "I am French, and I plan to stay in France"
                    },
                    {
                        "point": "2",
                        "label": "I am French, and I plan to stay in France"
                    }
                ],
                "nextScreen": "checkpoint-2"
            },
            {
                "order": 4,
                "icon": "https://picsum.photos/200/200",
                "question": "You’re obviously a seasoned traveler. Which of these options best describes you?",
                "funfact": "France is the most visited country in the world, with nearly 90 million people coming every year!",
                "choices": [{
                        "point": "null",
                        "label": "I am French, and I plan to stay in France"
                    },
                    {
                        "point": "null",
                        "label": "I am French, and I plan to stay in France"
                    },
                    {
                        "point": "2",
                        "label": "I am French, and I plan to stay in France"
                    },
                    {
                        "point": "null",
                        "label": "I am French, and I plan to stay in France"
                    }
                ],
                "nextScreen": "result"
            },
            {
                "order": 5,
                "icon": "https://picsum.photos/200/200",
                "question": "You’re obviously a seasoned traveler. Which of these options best describes you?",
                "funfact": "France is the most visited country in the world, with nearly 90 million people coming every year!",
                "choices": [{
                        "point": "null",
                        "label": "I am French, and I plan to stay in France"
                    },
                    {
                        "point": "1",
                        "label": "I am French, and I plan to stay in France"
                    },
                    {
                        "point": "1",
                        "label": "I am French, and I plan to stay in France"
                    },
                    {
                        "point": "null",
                        "label": "I am French, and I plan to stay in France"
                    }
                ],
                "nextScreen": "result"
            },
            {
                "order": 6,
                "icon": "https://picsum.photos/200/200",
                "question": "You’re obviously a seasoned traveler. Which of these options best describes you?",
                "funfact": "France is the most visited country in the world, with nearly 90 million people coming every year!",
                "choices": [{
                        "point": "2",
                        "label": "I am French, and I plan to stay in France"
                    },
                    {
                        "point": "null",
                        "label": "I am French, and I plan to stay in France"
                    },
                    {
                        "point": "null",
                        "label": "I am French, and I plan to stay in France"
                    },
                    {
                        "point": "1",
                        "label": "I am French, and I plan to stay in France"
                    }
                ],
                "nextScreen": "result"
            },
            {
                "order": 7,
                "icon": "https://picsum.photos/200/200",
                "question": "You’re obviously a seasoned traveler. Which of these options best describes you?",
                "funfact": "France is the most visited country in the world, with nearly 90 million people coming every year!",
                "choices": [{
                        "point": "1",
                        "label": "I am French, and I plan to stay in France"
                    },
                    {
                        "point": "2",
                        "label": "I am French, and I plan to stay in France"
                    },
                    {
                        "point": "2",
                        "label": "I am French, and I plan to stay in France"
                    },
                    {
                        "point": "null",
                        "label": "I am French, and I plan to stay in France"
                    }
                ],
                "nextScreen": "checkpoint-2"
            },
            {
                "order": 8,
                "icon": "https://picsum.photos/200/200",
                "question": "You’re obviously a seasoned traveler. Which of these options best describes you?",
                "funfact": "France is the most visited country in the world, with nearly 90 million people coming every year!",
                "choices": [{
                        "point": "null",
                        "label": "I am French, and I plan to stay in France"
                    },
                    {
                        "point": "null",
                        "label": "I am French, and I plan to stay in France"
                    },
                    {
                        "point": "1",
                        "label": "I am French, and I plan to stay in France"
                    },
                    {
                        "point": "1",
                        "label": "I am French, and I plan to stay in France"
                    }
                ],
                "nextScreen": "checkpoint-1"
            },
            {
                "order": 9,
                "icon": "https://picsum.photos/200/200",
                "question": "You’re obviously a seasoned traveler. Which of these options best describes you?",
                "funfact": "France is the most visited country in the world, with nearly 90 million people coming every year!",
                "choices": [{
                        "point": "1",
                        "label": "I am French, and I plan to stay in France"
                    },
                    {
                        "point": "1",
                        "label": "I am French, and I plan to stay in France"
                    },
                    {
                        "point": "1",
                        "label": "I am French, and I plan to stay in France"
                    },
                    {
                        "point": "2",
                        "label": "I am French, and I plan to stay in France"
                    }
                ],
                "nextScreen": "checkpoint-2"
            },
            {
                "order": 10,
                "icon": "https://picsum.photos/200/200",
                "question": "You’re obviously a seasoned traveler. Which of these options best describes you?",
                "funfact": "France is the most visited country in the world, with nearly 90 million people coming every year!",
                "choices": [{
                        "point": "null",
                        "label": "I am French, and I plan to stay in France"
                    },
                    {
                        "point": "1",
                        "label": "I am French, and I plan to stay in France"
                    },
                    {
                        "point": "2",
                        "label": "I am French, and I plan to stay in France"
                    },
                    {
                        "point": "2",
                        "label": "I am French, and I plan to stay in France"
                    }
                ],
                "nextScreen": "null"
            },
            {
                "order": 11,
                "icon": "https://picsum.photos/200/200",
                "question": "You’re obviously a seasoned traveler. Which of these options best describes you?",
                "funfact": "France is the most visited country in the world, with nearly 90 million people coming every year!",
                "choices": [{
                        "point": "1",
                        "label": "I am French, and I plan to stay in France"
                    },
                    {
                        "point": "null",
                        "label": "I am French, and I plan to stay in France"
                    },
                    {
                        "point": "2",
                        "label": "I am French, and I plan to stay in France"
                    },
                    {
                        "point": "null",
                        "label": "I am French, and I plan to stay in France"
                    }
                ],
                "nextScreen": "checkpoint-1"
            },
            {
                "order": 12,
                "icon": "https://picsum.photos/200/200",
                "question": "You’re obviously a seasoned traveler. Which of these options best describes you?",
                "funfact": "France is the most visited country in the world, with nearly 90 million people coming every year!",
                "choices": [{
                        "point": "2",
                        "label": "I am French, and I plan to stay in France"
                    },
                    {
                        "point": "null",
                        "label": "I am French, and I plan to stay in France"
                    },
                    {
                        "point": "2",
                        "label": "I am French, and I plan to stay in France"
                    },
                    {
                        "point": "1",
                        "label": "I am French, and I plan to stay in France"
                    }
                ],
                "nextScreen": "result"
            },
            {
                "order": 13,
                "icon": "https://picsum.photos/200/200",
                "question": "You’re obviously a seasoned traveler. Which of these options best describes you?",
                "funfact": "France is the most visited country in the world, with nearly 90 million people coming every year!",
                "choices": [{
                        "point": "2",
                        "label": "I am French, and I plan to stay in France"
                    },
                    {
                        "point": "2",
                        "label": "I am French, and I plan to stay in France"
                    },
                    {
                        "point": "null",
                        "label": "I am French, and I plan to stay in France"
                    },
                    {
                        "point": "null",
                        "label": "I am French, and I plan to stay in France"
                    }
                ],
                "nextScreen": "checkpoint-1"
            },
            {
                "order": 14,
                "icon": "https://picsum.photos/200/200",
                "question": "You’re obviously a seasoned traveler. Which of these options best describes you?",
                "funfact": "France is the most visited country in the world, with nearly 90 million people coming every year!",
                "choices": [{
                        "point": "2",
                        "label": "I am French, and I plan to stay in France"
                    },
                    {
                        "point": "1",
                        "label": "I am French, and I plan to stay in France"
                    },
                    {
                        "point": "null",
                        "label": "I am French, and I plan to stay in France"
                    },
                    {
                        "point": "null",
                        "label": "I am French, and I plan to stay in France"
                    }
                ],
                "nextScreen": "result"
            }
        ],
        "checkpoint-1": {
            "title": "Bravo",
            "content": "You’re really starting to discover France. But to really discover the country, get your personalized guide. It contains useful tips about transport, housing, food, schools, and much more – including how to manage your money and plan for retirement.",
            "link": "Non merci. I’ll continue with the Quiz"
        },
        "checkpoint-2": {
            "title": "Formidable",
            "content": "You’re starting to learn about France. But if you want to know more, get your personalized guide. It contains useful tips about transport, housing, food, schools, and much more – including how to manage your money and plan for retirement.",
            "link": "Non merci. I’ll continue with the Quiz"
        },
        "results": {
            "title": "Ooh la la! You’re ready for France!",
            "submit": {
                "title": "Submit your email address and download your guide:"
            },
            "share": {
                "title": "Share the experience with a friend moving to France:"
            },
            "profiles": [{
                    "name": "Lorem",
                    "icon": "https://picsum.photos/200/200",
                    "content": "You like France, but you still have a wonderful journey of discovery ahead. HSBC France is right by your side!"
                },
                {
                    "name": "Lorem",
                    "icon": "https://picsum.photos/200/200",
                    "content": "You like France, but you still have a wonderful journey of discovery ahead. HSBC France is right by your side!"
                },
                {
                    "name": "Lorem",
                    "icon": "https://picsum.photos/200/200",
                    "content": "You like France, but you still have a wonderful journey of discovery ahead. HSBC France is right by your side!"
                }
            ]
        }
    }
}
