<svg xmlns="http://www.w3.org/2000/svg" width="173.102" height="303" viewBox="0 0 173.102 303">
  <g id="Group_2" data-name="Group 2" transform="translate(13.051 9)">
    <g id="Path" transform="translate(59 37)" fill="none" stroke-miterlimit="10">
      <path d="M10.189,0H18.8L29,72H0Z" stroke="none"/>
      <path d="M 10.18918800354004 0 L 0 72 L 29 72 L 18.79815673828125 0 L 10.18918800354004 0 M 2.37315559387207 -9 L 10.18918800354004 -9 L 18.79815673828125 -9 L 26.61281204223633 -9 L 27.70915603637695 -1.262626647949219 L 37.9109992980957 70.73737335205078 L 39.3651237487793 81 L 29 81 L 0 81 L -10.36331176757812 81 L -8.911220550537109 70.73890686035156 L 1.277969360351562 -1.261093139648438 L 2.37315559387207 -9 Z" stroke="none" fill="#151515"/>
    </g>
    <g id="Path-2" data-name="Path" transform="translate(34 119)" fill="none" stroke-miterlimit="10">
      <path d="M17.758,11.293a4.962,4.962,0,0,0-4-2.019h-4.6V0H69.847V9.274h-4.6a5,5,0,0,0-4.776,6.444L79,76H54.209L44.544,15.532c-.761-4.849-9.091-4.849-9.839,0L25.066,76H0L18.531,15.719A4.975,4.975,0,0,0,17.758,11.293Z" stroke="none"/>
      <path d="M 9.153266906738281 0 L 9.153266906738281 9.274063110351562 L 13.75486755371094 9.274063110351562 C 15.33860015869141 9.274063110351562 16.82256698608398 10.02196502685547 17.75783157348633 11.29343414306641 C 18.70560073852539 12.56486511230469 18.992431640625 14.21026611328125 18.53099822998047 15.71856689453125 L 0 76 L 25.06549835205078 76 L 34.70513153076172 15.53156661987305 C 35.07925033569336 13.10710144042969 37.3488655090332 11.89486694335938 39.62003707885742 11.89486694335938 C 41.89120864868164 11.89486694335938 44.16393280029297 13.10710144042969 44.54426574707031 15.53156661987305 L 54.20883178710938 76 L 79 76 L 60.46896743774414 15.71856689453125 C 60.007568359375 14.21026611328125 60.29439926147461 12.56486511230469 61.24213409423828 11.29343414306641 C 62.17743301391602 10.02196502685547 63.66139984130859 9.274063110351562 65.24513244628906 9.274063110351562 L 69.84673309326172 9.274063110351562 L 69.84673309326172 0 L 62.87576675415039 0 L 59.54616546630859 0 L 19.44136810302734 0 L 18.24420166015625 0 L 9.153266906738281 0 M 0.1532669067382812 -9 L 9.153266906738281 -9 L 18.24420166015625 -9 L 19.44136810302734 -9 L 59.54616546630859 -9 L 62.87576675415039 -9 L 69.84673309326172 -9 L 78.84673309326172 -9 L 78.84673309326172 0 L 78.84673309326172 9.274063110351562 L 78.84673309326172 18.27406692504883 L 70.67020416259766 18.27406692504883 L 87.60269927978516 73.35546875 L 91.18233489990234 85 L 79 85 L 54.20883178710938 85 L 46.53306579589844 85 L 45.32163238525391 77.42043304443359 L 39.62979125976562 41.80820083618164 L 33.95326614379883 77.4168701171875 L 32.74440002441406 85 L 25.06549835205078 85 L 0 85 L -12.18233489990234 85 L -8.602699279785156 73.35546875 L 8.329765319824219 18.27406692504883 L 0.1532669067382812 18.27406692504883 L 0.1532669067382812 9.274063110351562 L 0.1532669067382812 0 L 0.1532669067382812 -9 Z" stroke="none" fill="#151515"/>
    </g>
    <g id="Path-3" data-name="Path" transform="translate(0 205)" fill="none" stroke-miterlimit="10">
      <path d="M14.491,0H132.509V9.337h-5.133a4.955,4.955,0,0,0-4.1,2.192,5.091,5.091,0,0,0-.534,4.662L147,79.987H121.858c-2.262-7.938-7.519-25.68-11.21-32.484C102.1,31.753,88.613,22.479,73.363,22.063c-14.976.416-28.46,9.7-37.011,25.44-3.7,6.817-8.961,24.546-11.21,32.5H0L24.26,16.2a5.091,5.091,0,0,0-.534-4.662,4.955,4.955,0,0,0-4.1-2.192H14.491Z" stroke="none"/>
      <path d="M 14.4912109375 0 L 14.4912109375 9.349502563476562 L 19.62400054931641 9.349502563476562 C 21.26454162597656 9.349502563476562 22.79320526123047 10.16854095458984 23.72528839111328 11.54196166992188 C 24.64499664306641 12.90283203125 24.85629272460938 14.65428924560547 24.25970458984375 16.20412445068359 L 0 80 L 25.14212799072266 80 C 27.39162445068359 72.04912567138672 32.64870452880859 54.32037353515625 36.352294921875 47.5035400390625 C 44.90287780761719 31.765625 58.38737487792969 22.4791259765625 73.36328887939453 22.06333160400391 C 88.61262512207031 22.4791259765625 102.0971221923828 31.7530403137207 110.647705078125 47.5035400390625 C 114.3388748168945 54.3077507019043 119.5959625244141 72.04912567138672 121.8578796386719 79.98737335205078 L 147 79.98737335205078 L 122.7402954101562 16.1915397644043 C 122.1437072753906 14.64167022705078 122.3549957275391 12.89020538330078 123.2746658325195 11.52937316894531 C 124.206787109375 10.15591430664062 125.7354583740234 9.3369140625 127.3759613037109 9.3369140625 L 132.5087890625 9.3369140625 L 132.5087890625 0 L 119.5835418701172 0 L 84.18820953369141 0 C 84.18820953369141 0 84.17575073242188 0 84.163330078125 0 C 84.11362457275391 0 84.01420593261719 0 83.914794921875 0 L 63.33379364013672 0 C 63.33379364013672 0 63.33379364013672 0 63.32137298583984 0 L 27.40404510498047 0 L 14.4912109375 0 M 5.4912109375 -9 L 14.4912109375 -9 L 27.40404510498047 -9 L 63.32137298583984 -9 L 83.914794921875 -9 L 119.5835418701172 -9 L 132.5087890625 -9 L 141.5087890625 -9 L 141.5087890625 0 L 141.5087890625 9.3369140625 L 141.5087890625 18.33691787719727 L 133.184814453125 18.33691787719727 L 155.4122924804688 76.78841400146484 L 160.0512084960938 88.98737335205078 L 147 88.98737335205078 L 121.8578796386719 88.98737335205078 L 115.0640869140625 88.98737335205078 L 113.2023773193359 82.45366668701172 C 108.9306259155273 67.46187591552734 105.0182495117188 56.00070953369141 102.7367935180664 51.79508209228516 C 95.65620422363281 38.75241851806641 85.13691711425781 31.3877067565918 73.11799621582031 31.06000137329102 C 61.94429016113281 31.38383483886719 51.24570465087891 38.94337463378906 44.26045989990234 51.80012512207031 C 41.96096038818359 56.03258514404297 37.95358276367188 67.77700042724609 33.80220794677734 82.45016479492188 L 31.94908142089844 89 L 25.14212799072266 89 L 0 89 L -13.05120849609375 89 L -8.41229248046875 76.80104064941406 L 13.81512451171875 18.3494987487793 L 5.4912109375 18.3494987487793 L 5.4912109375 9.349502563476562 L 5.4912109375 0 L 5.4912109375 -9 Z" stroke="none" fill="#151515"/>
    </g>
    <g id="Path-4" data-name="Path" transform="translate(63)" fill="none" stroke-miterlimit="10">
      <path d="M0,12.1H3.371A4.961,4.961,0,0,0,8.34,7.655L9.077,0h2.834l.749,7.655A4.97,4.97,0,0,0,17.629,12.1H21V21H0Z" stroke="none"/>
      <path d="M 21 21 L 21 12.10357475280762 L 17.62902450561523 12.10357475280762 C 15.05707454681396 12.10357475280762 12.90962505340576 10.1743745803833 12.65992546081543 7.655350208282471 L 11.9108247756958 0 C 10.97442531585693 0 10.00059986114502 0 9.076700210571289 0 L 8.34007453918457 7.655350208282471 C 8.102849960327148 10.1743745803833 5.942924976348877 12.10357475280762 3.370975017547607 12.10357475280762 L 0 12.10357475280762 L 0 21 L 0.5618249773979187 21 L 1.910225033760071 21 L 19.10224914550781 21 L 21 21 M 30 30 L 21 30 L 19.10224914550781 30 L 1.910225033760071 30 L 0.5618249773979187 30 L -8.438175201416016 30 L -9 21 L -9 12.10357475280762 L -9 3.103574991226196 L -0.2634955644607544 3.103574991226196 L 0.1180749982595444 -0.8620250225067139 L 0.9011499881744385 -9 L 9.076700210571289 -9 L 11.9108247756958 -9 L 20.0731258392334 -9 L 20.86804962158203 -0.8765000104904175 L 21.25751304626465 3.103574991226196 L 30 3.103574991226196 L 30 12.10357475280762 L 30 21 L 30 30 Z" stroke="none" fill="#dc0012"/>
    </g>
  </g>
</svg>
