<svg xmlns="http://www.w3.org/2000/svg" width="213.72" height="212.88" viewBox="0 0 213.72 212.88">
  <g id="icon9" transform="translate(5.25 13.128)">
    <circle id="Oval" cx="79.7" cy="79.7" r="79.7" transform="translate(0.341 34.76)" fill="none" stroke="#272626" stroke-miterlimit="10" stroke-width="11.182"/>
    <circle id="Oval-2" data-name="Oval" cx="52.489" cy="52.489" r="52.489" transform="translate(27.552 61.971)" fill="none" stroke="#272626" stroke-miterlimit="10" stroke-width="11.182"/>
    <circle id="Oval-3" data-name="Oval" cx="22.974" cy="22.974" r="22.974" transform="translate(57.067 91.486)" fill="none" stroke="#d9272e" stroke-miterlimit="10" stroke-width="11.182"/>
    <path id="Path" d="M0,90.463,91.481,0" transform="translate(80.041 23.998)" fill="none" stroke="#d9272e" stroke-miterlimit="10" stroke-width="11.182"/>
    <path id="Path-2" data-name="Path" d="M61.409,25.032H36.335V0L0,36.4V61.588H25.006l36.4-36.556Z" transform="translate(133.602 0.389)" fill="none" stroke="#d9272e" stroke-miterlimit="10" stroke-width="11.182"/>
  </g>
</svg>
