<svg xmlns="http://www.w3.org/2000/svg" width="209.302" height="209.044" viewBox="0 0 209.302 209.044">
  <g id="Group_7" data-name="Group 7" transform="translate(-0.207 -0.487)">
    <path id="Fill_1" data-name="Fill 1" d="M77.836,155.672A77.854,77.854,0,0,1,47.535,6.121a77.854,77.854,0,0,1,60.6,143.43A77.36,77.36,0,0,1,77.836,155.672Zm0-145.175A67.024,67.024,0,0,0,40.186,22a67.537,67.537,0,0,0-24.4,29.628A67.25,67.25,0,0,0,22,115.487a67.536,67.536,0,0,0,29.627,24.4,67.252,67.252,0,0,0,63.861-6.209,67.535,67.535,0,0,0,24.4-29.627,67.251,67.251,0,0,0-6.209-63.862,67.536,67.536,0,0,0-29.628-24.4A66.918,66.918,0,0,0,77.836,10.5Z" transform="translate(0.207 0.487)" fill="#272525"/>
    <path id="Stroke_3" data-name="Stroke 3" d="M0,42.015A42.015,42.015,0,0,1,42.015,0" transform="translate(36.028 36.308)" fill="none" stroke="#db0011" stroke-miterlimit="10" stroke-width="10.497"/>
    <path id="Stroke_5" data-name="Stroke 5" d="M0,0,78.248,78.248" transform="translate(127.55 127.57)" fill="none" stroke="#272525" stroke-miterlimit="10" stroke-width="10.497"/>
  </g>
</svg>
