<svg xmlns="http://www.w3.org/2000/svg" width="211.066" height="210.317" viewBox="0 0 211.066 210.317">
  <g id="icon18" transform="translate(8.434)">
    <path id="Path" d="M75.571,0H0V31.641H75.571L96.665,15.821,75.571,0Z" transform="translate(97.161 75.814)" fill="none" stroke="#d9272e" stroke-miterlimit="10" stroke-width="10.567"/>
    <path id="Path-2" data-name="Path" d="M0,.248H73.825" transform="translate(60.127 204.785)" fill="none" stroke="#272626" stroke-miterlimit="10" stroke-width="10.567"/>
    <path id="Path-3" data-name="Path" d="M.248,0V205.034" transform="translate(96.789)" fill="none" stroke="#272626" stroke-miterlimit="10" stroke-width="10.567"/>
    <path id="Path-4" data-name="Path" d="M21.094,31.641H96.665V0H21.094L0,15.821,21.094,31.641Z" transform="translate(0.372 33.626)" fill="none" stroke="#272626" stroke-miterlimit="10" stroke-width="10.567"/>
    <path id="Path-5" data-name="Path" d="M21.094,31.641H96.665V0H21.094L0,15.821,21.094,31.641Z" transform="translate(0.372 117.506)" fill="none" stroke="#272626" stroke-miterlimit="10" stroke-width="10.567"/>
  </g>
</svg>
